module code.gitea.io/terraform-provider-gitea

go 1.22.7

toolchain go1.24.1

require (
	code.gitea.io/sdk/gitea v0.20.0
	github.com/hashicorp/terraform-plugin-docs v0.20.1
	github.com/hashicorp/terraform-plugin-log v0.9.0
	github.com/hashicorp/terraform-plugin-sdk/v2 v2.35.0
)

require (
	github.com/42wim/httpsig v1.2.1 // indirect
	github.com/BurntSushi/toml v1.2.1 // indirect
	github.com/Kunde21/markdownfmt/v3 v3.1.0 // indirect
	github.com/Masterminds/goutils v1.1.1 // indirect
	github.com/Masterminds/semver/v3 v3.2.0 // indirect
	github.com/Masterminds/sprig/v3 v3.2.3 // indirect
	github.com/ProtonMail/go-crypto v1.1.0-alpha.2 // indirect
	github.com/agext/levenshtein v1.2.2 // indirect
	github.com/apparentlymart/go-textseg/v15 v15.0.0 // indirect
	github.com/armon/go-radix v1.0.0 // indirect
	github.com/bgentry/speakeasy v0.1.0 // indirect
	github.com/bmatcuk/doublestar/v4 v4.7.1 // indirect
	github.com/cloudflare/circl v1.3.7 // indirect
	github.com/davidmz/go-pageant v1.0.2 // indirect
	github.com/fatih/color v1.16.0 // indirect
	github.com/go-fed/httpsig v1.1.0 // indirect
	github.com/golang/protobuf v1.5.4 // indirect
	github.com/google/go-cmp v0.6.0 // indirect
	github.com/google/uuid v1.6.0 // indirect
	github.com/hashicorp/cli v1.1.6 // indirect
	github.com/hashicorp/errwrap v1.1.0 // indirect
	github.com/hashicorp/go-checkpoint v0.5.0 // indirect
	github.com/hashicorp/go-cleanhttp v0.5.2 // indirect
	github.com/hashicorp/go-cty v1.4.1-0.20200414143053-d3edf31b6320 // indirect
	github.com/hashicorp/go-hclog v1.6.3 // indirect
	github.com/hashicorp/go-multierror v1.1.1 // indirect
	github.com/hashicorp/go-plugin v1.6.2 // indirect
	github.com/hashicorp/go-retryablehttp v0.7.7 // indirect
	github.com/hashicorp/go-uuid v1.0.3 // indirect
	github.com/hashicorp/go-version v1.7.0 // indirect
	github.com/hashicorp/hc-install v0.9.0 // indirect
	github.com/hashicorp/hcl/v2 v2.22.0 // indirect
	github.com/hashicorp/logutils v1.0.0 // indirect
	github.com/hashicorp/terraform-exec v0.21.0 // indirect
	github.com/hashicorp/terraform-json v0.23.0 // indirect
	github.com/hashicorp/terraform-plugin-go v0.25.0 // indirect
	github.com/hashicorp/terraform-registry-address v0.2.3 // indirect
	github.com/hashicorp/terraform-svchost v0.1.1 // indirect
	github.com/hashicorp/yamux v0.1.1 // indirect
	github.com/huandu/xstrings v1.3.3 // indirect
	github.com/imdario/mergo v0.3.15 // indirect
	github.com/mattn/go-colorable v0.1.13 // indirect
	github.com/mattn/go-isatty v0.0.20 // indirect
	github.com/mattn/go-runewidth v0.0.9 // indirect
	github.com/mitchellh/copystructure v1.2.0 // indirect
	github.com/mitchellh/go-testing-interface v1.14.1 // indirect
	github.com/mitchellh/go-wordwrap v1.0.0 // indirect
	github.com/mitchellh/mapstructure v1.5.0 // indirect
	github.com/mitchellh/reflectwalk v1.0.2 // indirect
	github.com/oklog/run v1.0.0 // indirect
	github.com/posener/complete v1.2.3 // indirect
	github.com/shopspring/decimal v1.3.1 // indirect
	github.com/spf13/cast v1.5.0 // indirect
	github.com/vmihailenco/msgpack v4.0.4+incompatible // indirect
	github.com/vmihailenco/msgpack/v5 v5.4.1 // indirect
	github.com/vmihailenco/tagparser/v2 v2.0.0 // indirect
	github.com/yuin/goldmark v1.7.7 // indirect
	github.com/yuin/goldmark-meta v1.1.0 // indirect
	github.com/zclconf/go-cty v1.15.0 // indirect
	go.abhg.dev/goldmark/frontmatter v0.2.0 // indirect
	golang.org/x/crypto v0.28.0 // indirect
	golang.org/x/exp v0.0.0-20230626212559-97b1e661b5df // indirect
	golang.org/x/mod v0.21.0 // indirect
	golang.org/x/net v0.28.0 // indirect
	golang.org/x/sync v0.9.0 // indirect
	golang.org/x/sys v0.26.0 // indirect
	golang.org/x/text v0.20.0 // indirect
	golang.org/x/tools v0.22.0 // indirect
	google.golang.org/appengine v1.6.8 // indirect
	google.golang.org/genproto/googleapis/rpc v0.0.0-20240814211410-ddb44dafa142 // indirect
	google.golang.org/grpc v1.67.1 // indirect
	google.golang.org/protobuf v1.35.1 // indirect
	gopkg.in/yaml.v2 v2.3.0 // indirect
	gopkg.in/yaml.v3 v3.0.1 // indirect
)
